{
  "workbench.colorTheme": "Omni",
  "workbench.iconTheme": "material-icon-theme",
  "editor.tabSize": 2,
  "editor.fontFamily": "Fira Code",
  "editor.fontWeight": "400",
  "window.titleBarStyle": "custom",
  "editor.fontSize": 18,
  "editor.formatOnSave": true,
  "editor.fontLigatures": true,
  "editor.bracketPairColorization.enabled": true,
  "editor.defaultFormatter": "esbenp.prettier-vscode",

  "prettier.tabWidth": 2,
  "prettier.semi": false,
  "prettier.arrowParens": "avoid",
  "prettier.trailingComma": "none",
  "prettier.bracketSpacing": true,

  "editor.tokenColorCustomizations": {
    "[Material Theme Palenight High Contrast]": {
      "textMateRules": [
        {
          "scope": [
            "support.class.component",
            "entity.name.tag.js",
            "meta.block",
            "punctuation.definition.block.js",
            "keyword.control.import",
            "keyword.control.from",
            "punctuation.definition.parameters.begin.js",
            "punctuation.definition.parameters.end.js"
          ],
          "settings": {
            "foreground": "#a08bfd"
          }
        }
      ]
    },

    "[Dracula]": {
      "textMateRules": [
        {
          "scope": [
            "variable.parameter",
            "entity.other.attribute-name.js",
            "entity.other.attribute-name",
            "entity.name.type",
            "source",
            "support",
            "meta.import variable.other.readwrite"
          ],
          "settings": {
            "fontStyle": ""
          }
        }
      ]
    },

    // "textMateRules": [
    //   {
    //     "scope": [
    //       "support.type.property-name.json.comments",
    //       "punctuation.support.type.property-name.begin.json.comments",
    //       "punctuation.support.type.property-name.begin.json",
    //       "punctuation.support.type.property-name.end.json.comments",
    //       "punctuation.support.type.property-name.end.json",
    //       "meta.structure.dictionary.json support.type.property-name.json"
    //     ],
    //     "settings": {
    //       "foreground": "#a08bfd"
    //     }
    //   }
    // ],

    // "strings": "#89DDFF",
    "keywords": {
      "fontStyle": ""
    }
  },

  // https://gist.github.com/rupeshtiwari/6860fbc1b3e2f6711c780070d6f59748 -> All icons associations
  "material-icon-theme.folders.associations": {
    "migrations": "Tools",
    "entities": "Docs"
  },

  "editor.suggestSelection": "first",
  "explorer.confirmDelete": false,
  "workbench.startupEditor": "none",
  "explorer.confirmDragAndDrop": false,
  "[prisma]": {
    "editor.formatOnSave": true,
    "editor.defaultFormatter": "Prisma.prisma"
  },
  "workbench.colorCustomizations": {
    "statusBar.background": "#15141b",
    "statusBar.noFolderBackground": "#15141b",
    "statusBar.debuggingBackground": "#15141b"
  },
  "window.menuBarVisibility": "toggle",
  "terminal.integrated.fontSize": 18,
  "terminal.integrated.fontWeight": "bold",
  "terminal.integrated.fontFamily": "mononoki Nerd Font",
  "terminal.integrated.defaultProfile.linux": "fish",
  "terminal.integrated.defaultProfile.windows": "powersheel",
  "liveServer.settings.donotShowInfoMsg": true,
  "[python]": {
    "editor.defaultFormatter": "ms-python.python"
  },
  "editor.cursorSmoothCaretAnimation": true,
  "editor.cursorBlinking": "phase",
  "svg.preview.mode": "svg"
}
